{
    "KPlugin": {
        "Authors": [
            {
                "Name": "Miquel Sabaté",
                "Name[az]": "Miquel Sabaté",
                "Name[ca@valencia]": "Miquel Sabaté",
                "Name[ca]": "Miquel Sabaté",
                "Name[cs]": "Miquel Sabaté",
                "Name[de]": "Miquel Sabaté",
                "Name[el]": "Miquel Sabaté",
                "Name[en_GB]": "Miquel Sabaté",
                "Name[eo]": "Miquel Sabaté",
                "Name[es]": "Miquel Sabaté",
                "Name[et]": "Miquel Sabaté",
                "Name[eu]": "Miquel Sabaté",
                "Name[fi]": "Miquel Sabaté",
                "Name[fr]": "Miquel Sabaté",
                "Name[gl]": "Miquel Sabaté",
                "Name[it]": "Miquel Sabaté",
                "Name[ka]": "მიქელ საბატიე",
                "Name[ko]": "Miquel Sabaté",
                "Name[nl]": "Miquel Sabaté",
                "Name[nn]": "Miquel Sabaté",
                "Name[pl]": "Miquel Sabaté",
                "Name[pt]": "Miquel Sabaté",
                "Name[pt_BR]": "Miquel Sabaté",
                "Name[ru]": "Miquel Sabaté",
                "Name[sk]": "Miquel Sabaté",
                "Name[sl]": "Miquel Sabaté",
                "Name[sv]": "Miquel Sabaté",
                "Name[tr]": "Miquel Sabaté",
                "Name[uk]": "Miquel Sabaté",
                "Name[x-test]": "xxMiquel Sabatéxx",
                "Name[zh_CN]": "Miquel Sabaté"
            }
        ],
        "Category": "Utilities",
        "Description": "This plugin helps to obtain projects from GitHub",
        "Description[az]": "Bu qoşma, GitHub'dan layihələri almağa kömək edir",
        "Description[ca@valencia]": "Este connector ajuda a obtindre els projectes des de GitHub",
        "Description[ca]": "Aquest connector ajuda a obtenir els projectes des de GitHub",
        "Description[de]": "Dieses Modul hilft dabei, GitHub-Projekte zu beziehen",
        "Description[el]": "Αυτό το πρόσθετο βοηθάει στη λήψη έργων από το Github",
        "Description[en_GB]": "This plugin helps to obtain projects from GitHub",
        "Description[eo]": "Ĉi tiu kromaĵo helpas akiri projektojn de GitHub",
        "Description[es]": "Este complemento le ayuda a obtener proyectos de GitHub",
        "Description[et]": "See plugin aitab hankida projekte Githubist",
        "Description[eu]": "Plugin honek proiektuak GitHub-etik eskuratzen laguntzen dizu.",
        "Description[fr]": "Ce module aide à obtenir des projets depuis GitHub",
        "Description[gl]": "Este complemento permite obter proxectos de GitHub.",
        "Description[it]": "Questa estensione consente di ottenere progetti da GitHub",
        "Description[ko]": "이 플러그인은 GitHub에서 프로젝트를 가져옵니다",
        "Description[nl]": "Deze plug-in helpt om projecten uit Github te verkrijgen",
        "Description[pl]": "Pobiera projekty z GitHuba",
        "Description[pt]": "Este 'plugin' ajuda a obter projectos do GitHub",
        "Description[pt_BR]": "Este plugin ajuda a obter projetos a partir do GitHub",
        "Description[ru]": "Это расширение помогает получать код проектов с GitHub",
        "Description[sk]": "Tento modul pomáha získavať projekty z GitHub",
        "Description[sl]": "Ta vstavek pomaga pri pridobivanju projektov iz GitHub-a",
        "Description[sv]": "Insticksprogrammet hjälper till att erhålla projekt från Github",
        "Description[tr]": "Bu eklenti, Github'tan projeleri almanıza yardımcı olur",
        "Description[uk]": "За допомогою цього додатка можна отримувати проєкти з GitHub",
        "Description[x-test]": "xxThis plugin helps to obtain projects from GitHubxx",
        "Description[zh_CN]": "此插件帮助您从 GitHub 获取工程",
        "Icon": "kdevgh",
        "Id": "kdevghprovider",
        "License": "GPL",
        "Name": "GitHub Provider",
        "Name[az]": "GitHub təminatçısı",
        "Name[ca@valencia]": "Proveïdor de GitHub",
        "Name[ca]": "Proveïdor de GitHub",
        "Name[cs]": "Poskytovatel GitHubu",
        "Name[de]": "GitHub-Provider",
        "Name[el]": "Πάροχος github",
        "Name[en_GB]": "GitHub Provider",
        "Name[eo]": "GitHub Provizanto",
        "Name[es]": "Proveedor de GitHub",
        "Name[et]": "GitHubi pakkuja",
        "Name[eu]": "GitHub hornitzailea",
        "Name[fr]": "Fournisseur GitHub",
        "Name[gl]": "Fornecedor de GitHub",
        "Name[it]": "Fornitore GitHub",
        "Name[ka]": "GitHub-თან მიერთება",
        "Name[ko]": "GitHub 공급자",
        "Name[nl]": "Github-leverancier",
        "Name[nn]": "GitHub-tilbydar",
        "Name[pl]": "Dostawca GitHub",
        "Name[pt]": "Fornecedor do GitHub",
        "Name[pt_BR]": "Fornecedor do GitHub",
        "Name[ru]": "Поставщик данных GitHub",
        "Name[sk]": "Poskytovateľ GitHub",
        "Name[sl]": "Ponudnik za GitHub",
        "Name[sv]": "Github-leverantör",
        "Name[tr]": "GitHub Sağlayıcısı",
        "Name[uk]": "Надавач даних GitHub",
        "Name[x-test]": "xxGitHub Providerxx",
        "Name[zh_CN]": "GitHub 提供者"
    },
    "X-KDevelop-Category": "Global",
    "X-KDevelop-IRequired": [
        "org.kdevelop.IBasicVersionControl@kdevgit"
    ],
    "X-KDevelop-Interfaces": [
        "org.kdevelop.IProjectProvider"
    ],
    "X-KDevelop-Mode": "GUI"
}
