{
    "KPlugin": {
        "Authors": [
            {
                "Name": "Alexander Dymo",
                "Name[ar]": "Alexander Dymo",
                "Name[az]": "Alexander Dymo",
                "Name[ca@valencia]": "Alexander Dymo",
                "Name[ca]": "Alexander Dymo",
                "Name[cs]": "Alexander Dymo",
                "Name[de]": "Alexander Dymo",
                "Name[el]": "Alexander Dymo",
                "Name[en_GB]": "Alexander Dymo",
                "Name[eo]": "Aleksandro Dymo",
                "Name[es]": "Alexander Dymo",
                "Name[et]": "Alexander Dymo",
                "Name[eu]": "Alexander Dymo",
                "Name[fr]": "Alexander Dymo",
                "Name[gl]": "Alexander Dymo",
                "Name[it]": "Alexander Dymo",
                "Name[ka]": "ალექსანდრ დაიმო",
                "Name[ko]": "Alexander Dymo",
                "Name[nl]": "Alexander Dymo",
                "Name[nn]": "Alexander Dymo",
                "Name[pl]": "Alexander Dymo",
                "Name[pt]": "Alexander Dymo",
                "Name[pt_BR]": "Alexander Dymo",
                "Name[ru]": "Александр Дымо",
                "Name[sk]": "Alexander Dymo",
                "Name[sl]": "Alexander Dymo",
                "Name[sv]": "Alexander Dymo",
                "Name[tr]": "Alexander Dymo",
                "Name[uk]": "Олександр Димо",
                "Name[x-test]": "xxAlexander Dymoxx",
                "Name[zh_CN]": "Alexander Dymo"
            }
        ],
        "Category": "Core",
        "Description": "This plugin brings a filemanager to KDevelop.",
        "Description[ar]": "تجلب هذه الملحقة مدير ملفّات إلى مطوّرك.",
        "Description[az]": "Bu qoşma, fayl bələdçisini KDevelop'a daşıyır",
        "Description[ca@valencia]": "Este connector proporciona un gestor de fitxers a KDevelop.",
        "Description[ca]": "Aquest connector proporciona un gestor de fitxers al KDevelop.",
        "Description[cs]": "Tento modul do KDevelop přináší správce souborů.",
        "Description[de]": "Diese Modul fügt eine Dateiverwaltung zu KDevelop hinzu.",
        "Description[el]": "Αυτό το πρόσθετο ενσωματώνει έναν διαχειριστή αρχείων στο KDevelop.",
        "Description[en_GB]": "This plugin brings a filemanager to KDevelop.",
        "Description[eo]": "Ĉi tiu kromaĵo alportas dosieradministranton al KDevelop.",
        "Description[es]": "Este complemento proporciona un gestor de archivos a KDevelop.",
        "Description[et]": "See plugin võimaldab kasutada KDevelopis failihaldurit.",
        "Description[eu]": "Plugin honek fitxategi kudeatzaile bat ekartzen du KDevelopera.",
        "Description[fr]": "Ce module apporte un gestionnaire de fichiers à KDevelop",
        "Description[gl]": "Este complemento incorpora un xestor de ficheiros en KDevelop.",
        "Description[it]": "Questa estensione porta un gestore di file in KDevelop.",
        "Description[ko]": "이 플러그인은 KDevelop에 파일 관리자를 통합합니다.",
        "Description[nl]": "Deze plugin brengt een bestandsbeheerder in KDevelop.",
        "Description[pl]": "Umożliwia zarządzanie plikami w KDevelop.",
        "Description[pt]": "Este 'plugin' traz um gestor de ficheiros para o KDevelop.",
        "Description[pt_BR]": "Este plugin provê um gerenciador de arquivos ao KDevelop.",
        "Description[ru]": "Это расширение добавляет в KDevelop диспетчер файлов",
        "Description[sk]": "Tento plugin prináša správcu súborov do KDevelop.",
        "Description[sl]": "Ta vstavek v KDevelop vgradi upravljalnika datotek.",
        "Description[sv]": "Insticksprogrammet integrerar en filhanterare i KDevelop.",
        "Description[tr]": "Bu eklenti K Geliştir için bir dosya yöneticisi sağlar.",
        "Description[uk]": "За допомогою цього додатка можна отримати доступ до менеджера файлів у KDevelop.",
        "Description[x-test]": "xxThis plugin brings a filemanager to KDevelop.xx",
        "Description[zh_CN]": "此插件为 KDevelop 提供了一个文件管理器。",
        "Description[zh_TW]": "此外掛程式讓 KDevelop 可使用檔案管理員。",
        "Icon": "system-file-manager",
        "Id": "kdevfilemanager",
        "License": "GPL",
        "Name": "KDE File Manager Integration",
        "Name[ar]": "تكامل مدير ملفّات كِيدِي",
        "Name[az]": "KDE fayl meneceri inteqrasiyası",
        "Name[bg]": "Интегриране на файлов манипулатор на KDE",
        "Name[bs]": "KDe menadžer integracije datoteke",
        "Name[ca@valencia]": "Integració del gestor de fitxers de KDE",
        "Name[ca]": "Integració del gestor de fitxers del KDE",
        "Name[cs]": "Integrace správce souborů pro KDE",
        "Name[da]": "Integration af KDE filhåndtering",
        "Name[de]": "Integration der KDE-Dateiverwaltung",
        "Name[el]": "Ενσωμάτωση διαχειριστή αρχείων του KDE",
        "Name[en_GB]": "KDE File Manager Integration",
        "Name[eo]": "Integriĝo de KDE-Dosiermanaĝero",
        "Name[es]": "Integración del gestor de archivos de KDE",
        "Name[et]": "KDE lõimimine failihalduriga",
        "Name[eu]": "KDE fitxategi-kudeatzailea bateratzea",
        "Name[fr]": "Intégration du gestionnaire de fichiers de KDE",
        "Name[gl]": "Integración co xestor de ficheiros de KDE",
        "Name[hu]": "KDE fájlkezelő integráció",
        "Name[it]": "Integrazione gestore di file di KDE",
        "Name[ka]": "KDE-ს ფაილების მმართველთან ინტეგრაცია",
        "Name[kk]": "KDE файл менеджерімен біріктіру",
        "Name[ko]": "KDE 파일 관리자 통합",
        "Name[nb]": "Integrasjon med KDE filbehandler",
        "Name[nds]": "KDE-Dateiplegerünnerstütten",
        "Name[nl]": "KDE Bestandsbeheerder-integratie",
        "Name[pl]": "Dodanie przeglądarki plików KDE",
        "Name[pt]": "Integração com o Gestor de Ficheiros do KDE",
        "Name[pt_BR]": "Integração com o gerenciador de arquivos do KDE",
        "Name[ru]": "Интеграция файлового менеджера KDE",
        "Name[sk]": "Integrácia správcu súborov KDE",
        "Name[sl]": "Vgradnja Upravljalnika datotek za KDE",
        "Name[sv]": "Integrering av KDE:s filhanterare",
        "Name[tr]": "KDE Dosya Yöneticisi Tümleştirmesi",
        "Name[ug]": "KDE ھۆججەت باشقۇرغۇنىڭ يۈرۈشلەشتۈرۈلۇشى",
        "Name[uk]": "Інтеграція засобу керування файлами KDE",
        "Name[x-test]": "xxKDE File Manager Integrationxx",
        "Name[zh_CN]": "KDE 文件管理器整合",
        "Name[zh_TW]": "KDE 檔案管理員整合",
        "Version": "0.1"
    },
    "X-KDevelop-Category": "Global",
    "X-KDevelop-Mode": "GUI"
}
